…
``` r
#tidy the data
channel_a <- channel_a %>% rename(date=Date,channel_a=Download)
channel_b <- channel_b %>% rename(date=Date,channel_b=Download)

channel_a <- channel_a %>% pivot_longer(cols=2, names_to="channel", values_to="downloads")

channel_b <- channel_b %>% pivot_longer(cols=2, names_to="channel", values_to="downloads")

df <- rbind(channel_a,channel_b)

df
```

    ## # A tibble: 22 x 3
    ##    date       channel   downloads
    ##    <date>     <chr>         <dbl>
    ##  1 2019-09-16 channel_a     12000
    ##  2 2019-09-17 channel_a     13500
    ##  3 2019-09-18 channel_a     14000
    ##  4 2019-09-19 channel_a     15000
    ##  5 2019-09-20 channel_a     15000
    ##  6 2019-09-21 channel_a     10000
    ##  7 2019-09-22 channel_a     20000
    ##  8 2019-09-23 channel_a      5000
    ##  9 2019-09-24 channel_a     45000
    ## 10 2019-09-25 channel_a     60000
    ## # ... with 12 more rows
…
November 2016 seems the month with the highest purchase. Let’s see the
top items purchased in that month.

``` r
period <- interval("2016-11-01", "2016-11-30")
df_peak <- df %>% filter(date %within% period)

df_peak %>% select(-transaction) %>% 
  group_by(item) %>% count(item) %>% arrange(desc(n)) %>% ungroup()
```

    ## # A tibble: 58 x 2
    ##    item              n
    ##    <fct>         <int>
    ##  1 Coffee         1189
    ##  2 Bread           712
    ##  3 Tea             311
    ##  4 Pastry          218
    ##  5 Medialuna       208
    ##  6 Brownie         154
    ##  7 Alfajores       141
    ##  8 Muffin          127
    ##  9 Hot chocolate   118
    ## 10 Cake            116
    ## # ... with 48 more rows
…
